vcd_to_txt/test.vcd
$date
   Coucou :)
$end
$version
   Coucou :)
$end
$comment
   Any comment text.
$end
$timescale 1ps $end
$scope module logic $end
$var wire 1 $ data $end
$var wire 1 % clock $end
$upscope $end
$enddefinitions $end
$dumpvars
#1594271
1$
1%
#2458606
1$
1%
#2458667
1$
1%
#2458688
1$
0%
#2458704
1$
1%
#2458719
1$
1%
#2458734
1$
1%
#2458749
1$
0%
#2458764
1$
1%
#2458779
1$
1%
#2458794
1$
1%
#2458809
1$
0%
#2458824
1$
1%
#2458839
1$
1%
#2458853
1$
1%
#2458868
1$
1%
#2458883
1$
1%
#2458897
1$
1%
#2458912
1$
1%
#2462562
1$
1%
#2462611
1$
1%
#2462629
1$
0%
#2462645
1$
1%
#2536501
1$
1%
#2536549
1$
1%
#2536567
1$
1%
#2536583
1$
1%
#2536598
1$
1%
#2536613
1$
1%
#2536628
1$
1%
#2536643
1$
1%
#2536658
1$
1%
#2536673
1$
1%
#2536687
1$
0%
#2536702
1$
1%
#2536718
1$
0%
#2536732
1$
1%
#2536747
1$
0%
#2536762
1$
1%
#2536776
1$
0%
#2536791
1$
1%
#2536806
1$
0%
#2536821
1$
1%
#2536836
1$
0%
#2536851
1$
1%
#2536866
1$
1%
#2536880
1$
1%
#2536896
1$
0%
#2536911
1$
1%
#2536926
1$
1%
#2536940
1$
1%
#2536955
1$
0%
#2536970
1$
1%
#2536985
1$
1%
#2536999
1$
1%
#2540434
1$
0%
#2540484
1$
1%
#2540502
1$
1%
#2540519
1$
1%
#2540534
1$
1%
#2540549
1$
1%
#2540564
1$
1%
#2540579
1$
1%
#2540594
1$
1%
#2540608
1$
1%
#2540623
1$
0%
#2540638
1$
1%
#2995062
1$
1%
#2995087
1$
1%
#2995095
1$
1%
#2995102
1$
1%
#2995108
1$
0%
#2995115
1$
1%
#2995122
1$
1%
#2995129
1$
1%
#2995136
1$
1%
#2995142
1$
1%
#2995149
1$
0%
#2995156
1$
1%
#2995162
1$
0%
#2995169
1$
1%
#2995176
1$
1%
#2995182
1$
1%
#2995189
1$
1%
#2995195
1$
1%
#2995202
1$
1%
#2995209
1$
1%
#2995215
1$
0%
#2995222
1$
1%
#3081109
1$
1%
#3081157
1$
1%
#3081177
1$
1%
#3081193
1$
1%
#3081209
1$
1%
#3081223
1$
1%
#3081238
1$
1%
#3081253
1$
1%
#3081268
1$
1%
#3081283
1$
1%
#3081299
1$
0%
#3081315
1$
1%
#3081330
1$
0%
#3081345
1$
1%
#3085292
1$
0%
#3085341
1$
1%
#3085359
1$
0%
#3085375
1$
1%
#3085390
1$
0%
#3085406
1$
1%
#3085420
1$
0%
#3085435
1$
1%
#3085450
1$
1%
#3085465
1$
1%
#3085479
1$
1%
#3085495
1$
1%
#3085510
1$
0%
#3085524
1$
1%
#3085539
1$
1%
#3085554
1$
1%
#3085568
1$
1%
#3085583
1$
1%
#3085597
1$
0%
#3085612
1$
1%
#3085627
1$
0%
#3085642
1$
1%
#3085656
1$
1%
#3085671
1$
1%
#3085686
1$
1%
#3085701
1$
1%
#3085715
1$
1%
#3085730
1$
1%
#3085745
1$
0%
#3085759
1$
1%
#3392400
1$
1%
#3392458
1$
1%
#3392476
1$
0%
#3392493
1$
1%
#3392509
1$
1%
#3392526
1$
1%
#3392559
1$
1%
#3392577
1$
1%
#3392592
1$
1%
#3392607
1$
1%
#3392622
1$
1%
#3392637
1$
1%
#3392651
1$
0%
#3396432
1$
1%
#3396481
1$
1%
#3396500
1$
1%
#3396516
1$
1%
#3396532
1$
1%
#3396547
1$
0%
#3396562
1$
1%
#3396578
1$
0%
#3396593
1$
1%
#3470289
1$
1%
#3470339
1$
1%
#3470358
1$
1%
#3470374
1$
1%
#3470389
1$
1%
#3470404
1$
1%
#3470419
1$
1%
#3470434
1$
1%
#3470450
1$
1%
#3470465
1$
1%
#3470480
1$
0%
#3470495
1$
1%
#3470510
1$
0%
#3470524
1$
1%
#3470539
1$
0%
#3470554
1$
1%
#3470569
1$
0%
#3470584
1$
1%
#3470599
1$
0%
#3470614
1$
1%
#3470629
1$
0%
#3470644
1$
1%
#3470658
1$
1%
#3470673
1$
1%
#3470688
1$
0%
#3470703
1$
1%
#3470718
1$
1%
#3470733
1$
1%
#3474309
1$
1%
#3474360
1$
1%
#3474378
1$
1%
#3474394
1$
1%
#3474416
1$
1%
#3474432
1$
1%
#3474448
1$
0%
#3474465
1$
1%
#3474480
1$
1%
#3474496
1$
1%
#3474510
1$
1%
#3474525
1$
1%
#3474541
1$
0%
#3474556
1$
1%
#3474571
1$
0%
#3474586
1$
1%
#3691309
1$
1%
#3691337
1$
1%
#3691346
1$
0%
#3691353
1$
1%
#3691361
1$
0%
#3691368
1$
1%
#3691375
1$
1%
#3691381
1$
1%
#3691388
1$
1%
#3691394
1$
1%
#3691401
1$
1%
#3691407
1$
1%
#3691414
1$
0%
#3691421
1$
1%
#3691427
1$
1%
#3691434
1$
1%
#3691440
1$
1%
#3691447
1$
1%
#3691453
1$
1%
#3691460
1$
1%
#3691466
1$
0%
#3691473
1$
1%
#3765143
1$
1%
#3765168
1$
1%
#3765176
1$
1%
#3765183
1$
1%
#3765190
1$
1%
#3765197
1$
1%
#3765204
1$
1%
#3765210
1$
1%
#3765217
1$
1%
#3765224
1$
1%
#3765230
1$
0%
#3765237
1$
1%
#3765244
1$
0%
#3765250
1$
1%
#3765257
1$
0%
#3765264
1$
1%
#3765270
1$
0%
#3765277
1$
1%
#3765283
1$
0%
#3765290
1$
1%
#3765296
1$
0%
#3765303
1$
1%
#3765310
1$
1%
#3765316
1$
1%
#3765323
1$
0%
#3765329
1$
1%
#3765336
1$
0%
#3765342
1$
1%
#3765349
1$
1%
#3765356
1$
1%
#3765362
1$
1%
#3765369
1$
1%
#3769079
1$
1%
#3769105
1$
1%
#3769113
1$
0%
#3769120
1$
1%
#3769127
1$
1%
#3769166
1$
1%
#3769174
1$
1%
#3769180
1$
1%
#3769187
1$
1%
#3769194
1$
1%
#3769200
1$
0%
#3769207
1$
1%
#4043646
1$
1%
#4043694
1$
1%
#4043712
1$
1%
#4043728
1$
1%
#4043743
1$
1%
#4043757
1$
1%
#4043772
1$
0%
#4043787
1$
1%
#4043802
1$
1%
#4043816
1$
1%
#4043832
1$
1%
#4043846
1$
1%
#4043861
1$
0%
#4043876
1$
1%
#4043891
1$
1%
#4043905
1$
1%
#4043920
1$
1%
#4043935
1$
1%
#4043950
1$
0%
#4043965
1$
1%
#4043979
1$
0%
#4043994
1$
1%
#4109212
1$
1%
#4109270
1$
1%
#4109289
1$
1%
#4109304
1$
1%
#4109322
1$
1%
#4109337
1$
1%
#4109353
1$
1%
#4109367
1$
1%
#4109382
1$
1%
#4109397
1$
1%
#4109412
1$
0%
#4109427
1$
1%
#4109442
1$
0%
#4109457
1$
1%
#4109472
1$
0%
#4109487
1$
1%
#4109502
1$
0%
#4109516
1$
1%
#4109531
1$
0%
#4109546
1$
1%
#4109562
1$
0%
#4109577
1$
1%
#4109592
1$
1%
#4109607
1$
1%
#4113261
1$
1%
#4113311
1$
1%
#4113330
1$
1%
#4113346
1$
1%
#4113361
1$
0%
#4113376
1$
1%
#4113391
1$
1%
#4113405
1$
1%
#4113420
1$
1%
#4113435
1$
1%
#4113450
1$
0%
#4113464
1$
1%
#4113480
1$
1%
#4113494
1$
1%
#4113509
1$
1%
#4113523
1$
1%
#4113538
1$
0%
#4113553
1$
1%
#4113568
1$
0%
#4113582
1$
1%
#4412267
1$
1%
#4412316
1$
1%
#4412335
1$
0%
#4412351
1$
1%
#4412366
1$
0%
#4412381
1$
1%
#4412396
1$
1%
#4412411
1$
1%
#4412427
1$
0%
#4412442
1$
1%
#4412457
1$
1%
#4412471
1$
1%
#4412486
1$
0%
#4412500
1$
1%
#4412515
1$
1%
#4412530
1$
1%
#4412545
1$
1%
#4412560
1$
1%
#4412575
1$
0%
#4412589
1$
1%
#4412604
1$
0%
#4412619
1$
1%
#4490089
1$
1%
#4490140
1$
1%
#4490159
1$
1%
#4490177
1$
1%
#4490192
1$
1%
#4490207
1$
1%
#4490222
1$
1%
#4490237
1$
1%
#4490252
1$
1%
#4490266
1$
1%
#4490282
1$
0%
#4490297
1$
1%
#4490312
1$
0%
#4490326
1$
1%
#4490341
1$
0%
#4490356
1$
1%
#4490371
1$
0%
#4490386
1$
1%
#4490401
1$
0%
#4490416
1$
1%
#4490431
1$
0%
#4490446
1$
1%
#4494193
1$
1%
#4494280
1$
1%
#4494326
1$
0%
#4494354
1$
1%
#4494370
1$
0%
#4494386
1$
1%
#4494402
1$
1%
#4494417
1$
1%
#4494431
1$
0%
#4494446
1$
1%
#4494460
1$
1%
#4494475
1$
1%
#4494491
1$
0%
#4494506
1$
1%
#4494521
1$
1%
#4494536
1$
1%
#4494550
1$
1%
#4494565
1$
1%
#4494579
1$
0%
#4494594
1$
1%
#4494609
1$
0%
#4494624
1$
1%
#4735750
1$
1%
#4735802
1$
1%
#4735821
1$
1%
#4735836
1$
1%
#4735852
1$
1%
#4735867
1$
1%
#4735882
1$
0%
#4735897
1$
1%
#4735912
1$
1%
#4735926
1$
1%
#4735941
1$
0%
#4735956
1$
1%
#4735971
1$
0%
#4735986
1$
1%
#4736001
1$
1%
#4736015
1$
1%
#4736030
1$
1%
#4736045
1$
1%
#4736059
1$
1%
#4736074
1$
1%
#4736088
1$
0%
#4736103
1$
1%
#4821818
1$
1%
#4821870
1$
1%
#4821888
1$
1%
#4821904
1$
1%
#4821919
1$
1%
#4821934
1$
1%
#4821948
1$
1%
#4821963
1$
1%
#4821978
1$
1%
#4821993
1$
1%
#4822008
1$
0%
#4822023
1$
1%
#4822038
1$
0%
#4822052
1$
1%
#4822067
1$
0%
#4822081
1$
1%
#4822097
1$
0%
#4822112
1$
1%
#4825975
1$
0%
#4826035
1$
1%
#4826054
1$
0%
#4826071
1$
1%
#4826086
1$
1%
#4826101
1$
1%
#4826116
1$
1%
#4826131
1$
1%
#4826146
1$
1%
#4826160
1$
1%
#4826175
1$
0%
#4826190
1$
1%
#4826204
1$
1%
#4826219
1$
1%
#4826236
1$
0%
#4826252
1$
1%
#4826266
1$
0%
#4826281
1$
1%
#4826296
1$
1%
#4826311
1$
1%
#4826326
1$
1%
#4826340
1$
1%
#4826355
1$
1%
#4826370
1$
1%
#4826384
1$
0%
#4826399
1$
1%
#5305141
1$
1%
#5305191
1$
1%
#5305209
1$
0%
#5305225
1$
1%
#5305241
1$
0%
#5305256
1$
1%
#5305271
1$
1%
#5305286
1$
1%
#5305301
1$
1%
#5305316
1$
1%
#5305330
1$
0%
#5305345
1$
1%
#5305360
1$
0%
#5305376
1$
1%
#5305391
1$
1%
#5305406
1$
1%
#5305421
1$
1%
#5305435
1$
1%
#5305450
1$
0%
#5305464
1$
1%
#5305482
1$
0%
#5305497
1$
1%
#5386894
1$
1%
#5386945
1$
1%
#5386967
0$
1%
#5386984
1$
1%
#5387000
1$
1%
#5387016
1$
1%
#5387031
1$
1%
#5387046
1$
1%
#5387061
1$
1%
#5391097
1$
1%
#5391141
1$
0%
#5391157
1$
1%
#5391172
1$
0%
#5391187
1$
1%
#5391202
1$
0%
#5391218
1$
1%
#5391233
1$
0%
#5391248
1$
1%
#5391289
1$
0%
#5391306
1$
1%
#5391321
1$
0%
#5391336
1$
1%
#5391353
1$
1%
#5391369
1$
1%
#5391383
1$
0%
#5391398
1$
1%
#5391414
1$
0%
#5391429
1$
1%
#5391444
1$
1%
#5391459
1$
1%
#5391476
1$
1%
#5391492
1$
1%
#5391507
1$
0%
#5391522
1$
1%
#5391537
1$
0%
#5391552
1$
1%
#5391567
1$
1%
#5391581
1$
1%
#5391596
1$
1%
#5391611
1$
1%
#5391626
1$
0%
#5391640
1$
1%
#5391655
1$
0%
#5391670
1$
1%
